{
  "firstName": "Jhon",
  "lastName": "Smith",
  "company": "Warner Inc.",
  "address": "742 Evergreen Terrace",
  "address2": "Walnut Street",
  "country": "Singapore",
  "state": "Singapore",
  "city": "Singapore",
  "zipcode": "12345",
  "mobileNumber": "123-456789",
  "subject": "Subject",
  "message": "Message for contact us form...",
  "email": "contact@us.form"
}
